{
    "AC Cooldown": {
        "type": "percent",
        "descr": "Reduces AC weapon cooldown duration."
    },
    "AC Range": {
        "type": "percent",
        "descr": "Increases AC projectile range."
    },
    "AC Velocity": {
        "type": "percent",
        "descr": "Increases AC projectile velocity."
    },
    "Advanced Zoom": {
        "type": "percent",
        "descr": "A Picture-in-Picture long range zoom with 4x magnification."
    },
    "AMS Overload": {
        "type": "percent",
        "descr": "Increases the damage of AMS."
    },
    "Anchor Turn": {
        "type": "percent",
        "descr": "Increases the turning speed of a BattleMech."
    },
    "Arm Pitch": {
        "type": "percent",
        "descr": "Increases a 'Mech's arm pitch."
    },
    "Arm Speed": {
        "type": "percent",
        "descr": "Increases the speed at which a 'Mech can move its arms."
    },
    "Armor Hardening": {
        "type": "percent",
        "descr": "Increases a 'Mech's armor."
    },
    "Capture Assist": {
        "type": "percent",
        "descr": "Increases the rate of capture."
    },
    "Consumable Slot": {
        "type": "percent",
        "descr": "Adds an extra Consumable slot."
    },
    "Cool Run": {
        "type": "percent",
        "descr": "Increases heat dissipation."
    },
    "Coolant Reserves": {
        "type": "percent",
        "descr": "Allows an additional Cool Shot to be brought into the match."
    },
    "Cooldown": {
        "type": "percent",
        "descr": "Reduces cooldown duration of all Ballistic, Energy, and Missile weaponry."
    },
    "Coolshot Cooldown": {
        "type": "percent",
        "descr": "Reduces Cool Shot cooldown duration."
    },
    "Enhanced Coolshot": {
        "type": "percent",
        "descr": "Increases CoolShot efficiency."
    },
    "Enhanced ECM": {
        "type": "percent",
        "descr": "Decreases the Max Range at which an ECM-protected 'Mech can be targeted, and decreases the Cooldown Duration required before Stealth Armor can be re-activated."
    },
    "Enhanced NARC": {
        "type": "percent",
        "descr": "Increases projectile speed and duration."
    },
    "Enhanced Spotting": {
        "type": "percent",
        "descr": "Increases the accuracy of Air/Artillery Strikes by 20%."
    },
    "Enhanced UAC/RAC": {
        "type": "percent",
        "descr": "Reduces Jam time on UACs and Jam bar dissipation for RACs."
    },
    "Expanded Reserves": {
        "type": "percent",
        "descr": "Allows an additional Air/Artillery Strike to be carried into battle."
    },
    "Extended Bombardment": {
        "type": "percent",
        "descr": "Increases the duration of Air/Artillery Strikes."
    },
    "Extra UAV": {
        "type": "percent",
        "descr": "Allows an additional UAV to be carried into battle."
    },
    "Flamer Ventilation": {
        "type": "percent",
        "descr": "Increases the rate at which ramped heat dissipates."
    },
    "Gauss Charge": {
        "type": "percent",
        "descr": "Increases duration of time a Gauss Rifle charge can be held before it depletes."
    },
    "Gauss Cooldown": {
        "type": "percent",
        "descr": "Reduces Gauss weapon cooldown duration."
    },
    "Gauss Range": {
        "type": "percent",
        "descr": "Increases Gauss projectile range."
    },
    "Gauss Velocity": {
        "type": "percent",
        "descr": "Increases Gauss projectile velocity."
    },
    "Hard Brake": {
        "type": "percent",
        "descr": "Increases 'Mech deceleration."
    },
    "Heat Containment": {
        "type": "percent",
        "descr": "Increases maximum heat threshold before a 'Mech shuts down."
    },
    "Heat Gen": {
        "type": "percent",
        "descr": "Reduces heat generated by all Ballistic, Energy, and Missile weaponry."
    },
    "Heat Shielding": {
        "type": "percent",
        "descr": "Reduces the amount of heat generated while Jump Jetting."
    },
    "High Explosive": {
        "type": "percent",
        "descr": "Increases critical damage if a missile crits."
    },
    "Hill Climb": {
        "type": "percent",
        "descr": "Reduces the deceleration rate of slowdown when navigating slopes."
    },
    "Improved Gyros": {
        "type": "percent",
        "descr": "Reduces the amount of screen shake when being hit by enemy fire."
    },
    "Kinetic Burst": {
        "type": "percent",
        "descr": "Increases 'Mech acceleration."
    },
    "Laser Cooldown": {
        "type": "percent",
        "descr": "Reduces STD and ER Laser weapon cooldown duration."
    },
    "Laser Duration": {
        "type": "percent",
        "descr": "Reduces Laser duration."
    },
    "Laser Heat": {
        "type": "percent",
        "descr": "Reduces STD and ER Laser heat."
    },
    "Laser Range": {
        "type": "percent",
        "descr": "Increases STD and ER Laser range."
    },
    "LBX Cooldown": {
        "type": "percent",
        "descr": "Reduces LBX weapon cooldown duration."
    },
    "LBX Range": {
        "type": "percent",
        "descr": "Increases LBX projectile range."
    },
    "LBX Spread": {
        "type": "percent",
        "descr": "Reduces LBX spread."
    },
    "LBX Velocity": {
        "type": "percent",
        "descr": "Increases LBX projectile velocity."
    },
    "Lift Speed": {
        "type": "percent",
        "descr": "Increases initial boost of a 'Mech's Jump Jets."
    },
    "LRM Cooldown": {
        "type": "percent",
        "descr": "Reduces LRM weapon cooldown duration."
    },
    "LRM Range": {
        "type": "percent",
        "descr": "Increases LRM range."
    },
    "LRM Spread": {
        "type": "percent",
        "descr": "Reduces LRM spread."
    },
    "LRM Velocity": {
        "type": "percent",
        "descr": "Increases LRM velocity."
    },
    "Magazine Capacity": {
        "type": "percent",
        "descr": "Provides extra ammo (per-ton equipped) for Ballistic weapons."
    },
    "Missile Rack": {
        "type": "percent",
        "descr": "Provides extra missiles (per-ton equipped) for Missile weapons."
    },
    "Missile Spread": {
        "type": "percent",
        "descr": "Reduces missile spread."
    },
    "PPC Cooldown": {
        "type": "percent",
        "descr": "Reduces PPC weapon cooldown duration."
    },
    "PPC Heat": {
        "type": "percent",
        "descr": "Reduces PPC heat."
    },
    "PPC Range": {
        "type": "percent",
        "descr": "Increases PPC range."
    },
    "PPC Velocity": {
        "type": "percent",
        "descr": "Increases PPC velocity."
    },
    "Pulse Laser Cooldown": {
        "type": "percent",
        "descr": "Reduces Pulse Laser weapon cooldown duration."
    },
    "Pulse Laser Duration": {
        "type": "percent",
        "descr": "Reduces Pulse Laser duration."
    },
    "Pulse Laser Heat": {
        "type": "percent",
        "descr": "Reduces Pulse Laser heat."
    },
    "Pulse Laser Range": {
        "type": "percent",
        "descr": "Increases Pulse Laser range."
    },
    "Quick Ignition": {
        "type": "percent",
        "descr": "Speeds up start-up and shut-down sequences."
    },
    "Radar Deprivation": {
        "type": "percent",
        "descr": "Reduces the duration of time you remain targeted after breaking the enemy's line of sight."
    },
    "Range": {
        "type": "percent",
        "descr": "Increases range of all Ballistic, Energy, and Missile weaponry."
    },
    "Reinforced Casing": {
        "type": "percent",
        "descr": "Reduces the chance of critical hits by 1%."
    },
    "Seismic Sensor": {
        "type": "percent",
        "descr": "Allows detection and identification of enemy 'Mechs via ground vibrations. Must be stationary."
    },
    "Sensor Range": {
        "type": "percent",
        "descr": "Boost sensor range."
    },
    "Shock Absorbance": {
        "type": "percent",
        "descr": "Absorbs fall damage for 'Mechs."
    },
    "Skeletal Density": {
        "type": "percent",
        "descr": "Increases a 'Mech's structure."
    },
    "Speed Retention": {
        "type": "percent",
        "descr": "Maintains 'Mech's speed after being legged. Capped at 50 km/h."
    },
    "Speed Tweak": {
        "type": "percent",
        "descr": "Increases 'Mech top speed."
    },
    "SRM Cooldown": {
        "type": "percent",
        "descr": "Reduces SRM weapon cooldown duration."
    },
    "SRM Range": {
        "type": "percent",
        "descr": "Increases SRM range."
    },
    "SRM Spread": {
        "type": "percent",
        "descr": "Reduces SRM spread."
    },
    "SRM Velocity": {
        "type": "percent",
        "descr": "Increases SRM velocity."
    },
    "Streak SRM Cooldown": {
        "type": "percent",
        "descr": "Reduces Streak SRM cooldown duration."
    },
    "Streak SRM Heat": {
        "type": "percent",
        "descr": "Reduces Streak SRM heat."
    },
    "Streak SRM Range": {
        "type": "percent",
        "descr": "Increases Streak SRM range."
    },
    "Streak SRM Spread": {
        "type": "percent",
        "descr": "Reduces Streak SRM spread."
    },
    "Streak SRM Velocity": {
        "type": "percent",
        "descr": "Increases Streak SRM velocity."
    },
    "Target Decay": {
        "type": "percent",
        "descr": "Increases amount of time a 'Mech is trackable when its leaves line of sight."
    },
    "Target Info Gathering": {
        "type": "percent",
        "descr": "Decreases the amount of time required for detailed target information."
    },
    "Target Retention": {
        "type": "percent",
        "descr": "Allows retention of target information when the enemy moves behind the piloted 'Mech."
    },
    "Torso Pitch": {
        "type": "percent",
        "descr": "Increases a 'Mech's torso pitch."
    },
    "Torso Speed": {
        "type": "percent",
        "descr": "Increases the speed at which a 'Mech can twist its upper torso."
    },
    "Torso Yaw": {
        "type": "percent",
        "descr": "Increases the maximum amount a 'Mech can twist its torso."
    },
    "Turn Rate": {
        "type": "percent",
        "descr": "Increases the turning speed of a 'Mech."
    },
    "UAC Cooldown": {
        "type": "percent",
        "descr": "Reduces UAC weapon cooldown duration."
    },
    "UAC Jam Chance": {
        "type": "percent",
        "descr": "Reduces Jam Duration for UACs and improves Jam Bar Dissipation Rate for RACs."
    },
    "UAC Range": {
        "type": "percent",
        "descr": "Increases UAC projectile range."
    },
    "UAC Velocity": {
        "type": "percent",
        "descr": "Increases UAC projectile velocity."
    },
    "UAV Range": {
        "type": "percent",
        "descr": "Permanently increases the range of all UAVs."
    },
    "UAV Time": {
        "type": "percent",
        "descr": "Increases the amount of time a UAV is present by 10 seconds."
    },
    "UAV Time On Station": {
        "type": "percent",
        "descr": "Increases UAV duration."
    },
    "Vectoring": {
        "type": "percent",
        "descr": "Increases forward thrust of a 'Mech's Jump Jets."
    },
    "Velocity": {
        "type": "percent",
        "descr": "Increases velocity of all Ballistic, Missile, and PPC weaponry."
    },
    "Vent Calibration": {
        "type": "percent",
        "descr": "Increases burn time of a 'Mech's Jump Jets."
    }
}
