{
  "date" : "2018-09-18",
  "version" : "1.4.181.0",
  "sections" : [
      {
        "category" : "Firepower",
        "title" : "Weapons",
        "descr" : "",
        "cells" : [
            {
              "col" : 0,
              "row" : 0,
              "type" : "Range",
              "level" : 1,
              "value" : 1,
              "links" : [
                  { "col" : -1, "row" : 1 },
                  { "col" : 1, "row" : 1 }
                ]
            },
            {
              "col" : -1,
              "row" : 1,
              "type" : "Range",
              "level" : 2,
              "value" : 1,
              "links" : [
                  { "col" : -2, "row" : 1 },
                  { "col" : 0, "row" : 1 }
                ]
            },
            {
              "col" : 1,
              "row" : 1,
              "type" : "Range",
              "level" : 3,
              "value" : 1,
              "links" : [
                  { "col" : 0, "row" : 1 },
                  { "col" : 2, "row" : 1 }
                ]
            },
            {
              "col" : -2,
              "row" : 1,
              "type" : "Range",
              "level" : 4,
              "value" : 1,
              "links" : [
                  { "col" : -3, "row" : 2 },
                  { "col" : -2, "row" : 2 },
                  { "col" : -1, "row" : 2 }
                ]
            },
            {
              "col" : 0,
              "row" : 1,
              "type" : "Range",
              "level" : 5,
              "value" : 1,
              "links" : [
                  { "col" : 0, "row" : 2 }
                ]
            },
            {
              "col" : 2,
              "row" : 1,
              "type" : "Range",
              "level" : 6,
              "value" : 1,
              "links" : [
                  { "col" : 1, "row" : 2 },
                  { "col" : 2, "row" : 2 },
                  { "col" : 3, "row" : 2 }
                ]
            },
            {
              "col" : -3,
              "row" : 2,
              "type" : "Cooldown",
              "level" : 1,
              "value" : {"Clan": -0.6, "IS": -0.75},
              "links" : [
                  { "col" : -4, "row" : 2 }
                ]
            },
            {
              "col" : -1,
              "row" : 2,
              "type" : "Velocity",
              "level" : 1,
              "value" : 3,
              "links" : [
                  { "col" : 0, "row" : 2 }
                ]
            },
            {
              "col" : 1,
              "row" : 2,
              "type" : "Velocity",
              "level" : 2,
              "value" : 3,
              "links" : [
                  { "col" : 0, "row" : 2 }
                ]
            },
            {
              "col" : 3,
              "row" : 2,
              "type" : "Cooldown",
              "level" : 2,
              "value" : {"Clan": -0.6, "IS": -0.75},
              "links" : [
                  { "col" : 4, "row" : 2 }
                ]
            },
            {
              "col" : -4,
              "row" : 2,
              "type" : "Cooldown",
              "level" : 3,
              "value" : {"Clan": -0.6, "IS": -0.75},
              "links" : [
                  { "col" : -5, "row" : 3 },
                  { "col" : -4, "row" : 3 },
                  { "col" : -3, "row" : 3 }
                ]
            },
            {
              "col" : -2,
              "row" : 2,
              "type" : "High Explosive",
              "level" : 1,
              "value" : 7.5,
              "links" : [
                  { "col" : -3, "row" : 3 }
                ]
            },
            {
              "col" : 0,
              "row" : 2,
              "type" : "Cooldown",
              "level" : 4,
              "value" : {"Clan": -0.6, "IS": -0.75},
              "links" : [
                  { "col" : 0, "row" : 3 },
                  { "col" : 1, "row" : 3 }
                ]
            },
            {
              "col" : 2,
              "row" : 2,
              "type" : "Gauss Charge",
              "level" : 1,
              "value" : 0.75,
              "links" : [
                  { "col" : 1, "row" : 3 },
                  { "col" : 3, "row" : 3 }
                ]
            },
            {
              "col" : 4,
              "row" : 2,
              "type" : "Cooldown",
              "level" : 5,
              "value" : {"Clan": -0.6, "IS": -0.75},
              "links" : [
                  { "col" : 3, "row" : 3 },
                  { "col" : 4, "row" : 3 },
                  { "col" : 5, "row" : 3 }
                ]
            },
            {
              "col" : -5,
              "row" : 3,
              "type" : "Range",
              "level" : 7,
              "value" : 1,
              "links" : [
                  { "col" : -6, "row" : 3 }
                ]
            },
            {
              "col" : -3,
              "row" : 3,
              "type" : "Heat Gen",
              "level" : 1,
              "value" : {"Clan": -0.6, "IS": -0.75},
              "links" : [
                  { "col" : -4, "row" : 3 },
                  { "col" : -2, "row" : 3 }
                ]
            },
            {
              "col" : 1,
              "row" : 3,
              "type" : "Flamer Ventilation",
              "level" : 1,
              "value" : -7.5,
              "links" : [
                ]
            },
            {
              "col" : 3,
              "row" : 3,
              "type" : "Heat Gen",
              "level" : 2,
              "value" : {"Clan": -0.6, "IS": -0.75},
              "links" : [
                  { "col" : 2, "row" : 3 },
                  { "col" : 4, "row" : 3 }
                ]
            },
            {
              "col" : 5,
              "row" : 3,
              "type" : "Range",
              "level" : 8,
              "value" : 1,
              "links" : [
                  { "col" : 6, "row" : 3 }
                ]
            },
            {
              "col" : -6,
              "row" : 3,
              "type" : "Range",
              "level" : 9,
              "value" : 1,
              "links" : [
                  { "col" : -5, "row" : 4 }
                ]
            },
            {
              "col" : -4,
              "row" : 3,
              "type" : "Missile Spread",
              "level" : 1,
              "value" : -2.5,
              "links" : [
                  { "col" : -5, "row" : 4 }
                ]
            },
            {
              "col" : -2,
              "row" : 3,
              "type" : "Heat Gen",
              "level" : 3,
              "value" : {"Clan": -0.6, "IS": -0.75},
              "links" : [
                  { "col" : -3, "row" : 4 },
                  { "col" : -1, "row" : 4 }
                ]
            },
            {
              "col" : 0,
              "row" : 3,
              "type" : "Cooldown",
              "level" : 6,
              "value" : {"Clan": -0.6, "IS": -0.75},
              "links" : [
                  { "col" : -1, "row" : 4 },
                  { "col" : 0, "row" : 4 },
                  { "col" : 1, "row" : 4 }
                ]
            },
            {
              "col" : 2,
              "row" : 3,
              "type" : "Heat Gen",
              "level" : 4,
              "value" : {"Clan": -0.6, "IS": -0.75},
              "links" : [
                  { "col" : 1, "row" : 4 },
                  { "col" : 3, "row" : 4 }
                ]
            },
            {
              "col" : 4,
              "row" : 3,
              "type" : "LBX Spread",
              "level" : 1,
              "value" : -5,
              "links" : [
                  { "col" : 5, "row" : 4 }
                ]
            },
            {
              "col" : 6,
              "row" : 3,
              "type" : "Range",
              "level" : 10,
              "value" : 1,
              "links" : [
                  { "col" : 5, "row" : 4 },
                  { "col" : 7, "row" : 4 }
                ]
            },
            {
              "col" : -5,
              "row" : 4,
              "type" : "Cooldown",
              "level" : 7,
              "value" : {"Clan": -0.6, "IS": -0.75},
              "links" : [
                  { "col" : -6, "row" : 4 },
                  { "col" : -4, "row" : 4 }
                ]
            },
            {
              "col" : -3,
              "row" : 4,
              "type" : "Velocity",
              "level" : 3,
              "value" : 3,
              "links" : [
                  { "col" : -4, "row" : 4 }
                ]
            },
            {
              "col" : -1,
              "row" : 4,
              "type" : "Range",
              "level" : 11,
              "value" : 1,
              "links" : [
                  { "col" : -2, "row" : 4 },
                  { "col" : 0, "row" : 4 }
                ]
            },
            {
              "col" : 1,
              "row" : 4,
              "type" : "Range",
              "level" : 12,
              "value" : 1,
              "links" : [
                  { "col" : 0, "row" : 4 },
                  { "col" : 2, "row" : 4 }
                ]
            },
            {
              "col" : 3,
              "row" : 4,
              "type" : "Velocity",
              "level" : 4,
              "value" : 3,
              "links" : [
                  { "col" : 4, "row" : 4 }
                ]
            },
            {
              "col" : 5,
              "row" : 4,
              "type" : "Cooldown",
              "level" : 8,
              "value" : {"Clan": -0.6, "IS": -0.75},
              "links" : [
                  { "col" : 4, "row" : 4 },
                  { "col" : 5, "row" : 5 },
                  { "col" : 6, "row" : 4 }
                ]
            },
            {
              "col" : 7,
              "row" : 4,
              "type" : "Enhanced UAC/RAC",
              "level" : 1,
              "value" : -7.5,
              "links" : [
                ]
            },
            {
              "col" : -6,
              "row" : 4,
              "type" : "Heat Gen",
              "level" : 5,
              "value" : {"Clan": -0.6, "IS": -0.75},
              "links" : [
                  { "col" : -7, "row" : 5 }
                ]
            },
            {
              "col" : -4,
              "row" : 4,
              "type" : "Heat Gen",
              "level" : 6,
              "value" : {"Clan": -0.6, "IS": -0.75},
              "links" : [
                  { "col" : -5, "row" : 5 },
                  { "col" : -4, "row" : 5 },
                  { "col" : -3, "row" : 5 }
                ]
            },
            {
              "col" : -2,
              "row" : 4,
              "type" : "Range",
              "level" : 13,
              "value" : 1,
              "links" : [
                  { "col" : -3, "row" : 5 },
                  { "col" : -2, "row" : 5 },
                  { "col" : -1, "row" : 5 }
                ]
            },
            {
              "col" : 0,
              "row" : 4,
              "type" : "Laser Duration",
              "level" : 1,
              "value" : {"Clan": -2.5, "IS": -3.75},
              "links" : [
                  { "col" : 0, "row" : 5 }
                ]
            },
            {
              "col" : 2,
              "row" : 4,
              "type" : "Range",
              "level" : 14,
              "value" : 1,
              "links" : [
                  { "col" : 1, "row" : 5 },
                  { "col" : 3, "row" : 5 }
                ]
            },
            {
              "col" : 4,
              "row" : 4,
              "type" : "Cooldown",
              "level" : 9,
              "value" : {"Clan": -0.6, "IS": -0.75},
              "links" : [
                  { "col" : 3, "row" : 5 },
                  { "col" : 4, "row" : 5 },
                  { "col" : 5, "row" : 5 }
                ]
            },
            {
              "col" : 6,
              "row" : 4,
              "type" : "Heat Gen",
              "level" : 7,
              "value" : {"Clan": -0.6, "IS": -0.75},
              "links" : [
                  { "col" : 7, "row" : 5 }
                ]
            },
            {
              "col" : -7,
              "row" : 5,
              "type" : "Cooldown",
              "level" : 10,
              "value" : {"Clan": -0.6, "IS": -0.75},
              "links" : [
                  { "col" : -6, "row" : 5 }
                ]
            },
            {
              "col" : -5,
              "row" : 5,
              "type" : "High Explosive",
              "level" : 2,
              "value" : 7.5,
              "links" : [
                  { "col" : -4, "row" : 5 }
                ]
            },
            {
              "col" : -3,
              "row" : 5,
              "type" : "Heat Gen",
              "level" : 8,
              "value" : {"Clan": -0.6, "IS": -0.75},
              "links" : [
                  { "col" : -4, "row" : 5 },
                  { "col" : -3, "row" : 6 }
                ]
            },
            {
              "col" : -1,
              "row" : 5,
              "type" : "Missile Rack",
              "level" : 1,
              "value" : 1,
              "links" : [
                  { "col" : 0, "row" : 5 }
                ]
            },
            {
              "col" : 1,
              "row" : 5,
              "type" : "Magazine Capacity",
              "level" : 1,
              "value" : 1,
              "links" : [
                  { "col" : 0, "row" : 5 }
                ]
            },
            {
              "col" : 3,
              "row" : 5,
              "type" : "Heat Gen",
              "level" : 9,
              "value" : {"Clan": -0.6, "IS": -0.75},
              "links" : [
                  { "col" : 3, "row" : 6 },
                  { "col" : 4, "row" : 5 }
                ]
            },
            {
              "col" : 5,
              "row" : 5,
              "type" : "Gauss Charge",
              "level" : 2,
              "value" : 0.75,
              "links" : [
                  { "col" : 4, "row" : 5 }
                ]
            },
            {
              "col" : 7,
              "row" : 5,
              "type" : "Cooldown",
              "level" : 11,
              "value" : {"Clan": -0.6, "IS": -0.75},
              "links" : [
                  { "col" : 6, "row" : 5 }
                ]
            },
            {
              "col" : -6,
              "row" : 5,
              "type" : "Missile Rack",
              "level" : 2,
              "value" : 1,
              "links" : [
                ]
            },
            {
              "col" : -4,
              "row" : 5,
              "type" : "Laser Duration",
              "level" : 2,
              "value" : {"Clan": -2.5, "IS": -3.75},
              "links" : [
                  { "col" : -3, "row" : 6 }
                ]
            },
            {
              "col" : -2,
              "row" : 5,
              "type" : "Flamer Ventilation",
              "level" : 2,
              "value" : -7.5,
              "links" : [
                ]
            },
            {
              "col" : 0,
              "row" : 5,
              "type" : "Cooldown",
              "level" : 12,
              "value" : {"Clan": -0.6, "IS": -0.75},
              "links" : [
                  { "col" : -1, "row" : 6 },
                  { "col" : 1, "row" : 6 }
                ]
            },
            {
              "col" : 4,
              "row" : 5,
              "type" : "Laser Duration",
              "level" : 3,
              "value" : {"Clan": -2.5, "IS": -3.75},
              "links" : [
                  { "col" : 3, "row" : 6 }
                ]
            },
            {
              "col" : 6,
              "row" : 5,
              "type" : "Magazine Capacity",
              "level" : 2,
              "value" : 1,
              "links" : [
                ]
            },
            {
              "col" : -3,
              "row" : 6,
              "type" : "Cooldown",
              "level" : 13,
              "value" : {"Clan": -0.6, "IS": -0.75},
              "links" : [
                  { "col" : -4, "row" : 6 },
                  { "col" : -2, "row" : 6 }
                ]
            },
            {
              "col" : -1,
              "row" : 6,
              "type" : "Range",
              "level" : 15,
              "value" : 1,
              "links" : [
                  { "col" : -2, "row" : 6 },
                  { "col" : 0, "row" : 6 }
                ]
            },
            {
              "col" : 1,
              "row" : 6,
              "type" : "Velocity",
              "level" : 5,
              "value" : 3,
              "links" : [
                  { "col" : 0, "row" : 6 },
                  { "col" : 2, "row" : 6 }
                ]
            },
            {
              "col" : 3,
              "row" : 6,
              "type" : "Cooldown",
              "level" : 14,
              "value" : {"Clan": -0.6, "IS": -0.75},
              "links" : [
                  { "col" : 2, "row" : 6 },
                  { "col" : 4, "row" : 6 }
                ]
            },
            {
              "col" : -4,
              "row" : 6,
              "type" : "Heat Gen",
              "level" : 10,
              "value" : {"Clan": -0.6, "IS": -0.75},
              "links" : [
                ]
            },
            {
              "col" : -2,
              "row" : 6,
              "type" : "Heat Gen",
              "level" : 11,
              "value" : {"Clan": -0.6, "IS": -0.75},
              "links" : [
                  { "col" : -2, "row" : 7 }
                ]
            },
            {
              "col" : 0,
              "row" : 6,
              "type" : "Cooldown",
              "level" : 15,
              "value" : {"Clan": -0.6, "IS": -0.75},
              "links" : [
                  { "col" : -1, "row" : 7 },
                  { "col" : 0, "row" : 7 },
                  { "col" : 1, "row" : 7 }
                ]
            },
            {
              "col" : 2,
              "row" : 6,
              "type" : "Heat Gen",
              "level" : 12,
              "value" : {"Clan": -0.6, "IS": -0.75},
              "links" : [
                  { "col" : 2, "row" : 7 },
                  { "col" : 3, "row" : 7 }
                ]
            },
            {
              "col" : 4,
              "row" : 6,
              "type" : "Cooldown",
              "level" : 16,
              "value" : {"Clan": -0.6, "IS": -0.75},
              "links" : [
                  { "col" : 3, "row" : 7 }
                ]
            },
            {
              "col" : -1,
              "row" : 7,
              "type" : "Missile Spread",
              "level" : 2,
              "value" : -2.5,
              "links" : [
                ]
            },
            {
              "col" : 1,
              "row" : 7,
              "type" : "Enhanced UAC/RAC",
              "level" : 2,
              "value" : -7.5,
              "links" : [
                ]
            },
            {
              "col" : 3,
              "row" : 7,
              "type" : "LBX Spread",
              "level" : 2,
              "value" : -5,
              "links" : [
                ]
            },
            {
              "col" : -2,
              "row" : 7,
              "type" : "Heat Gen",
              "level" : 13,
              "value" : {"Clan": -0.6, "IS": -0.75},
              "links" : [
                ]
            },
            {
              "col" : 0,
              "row" : 7,
              "type" : "Laser Duration",
              "level" : 4,
              "value" : {"Clan": -2.5, "IS": -3.75},
              "links" : [
                ]
            },
            {
              "col" : 2,
              "row" : 7,
              "type" : "Heat Gen",
              "level" : 14,
              "value" : {"Clan": -0.6, "IS": -0.75},
              "links" : [
                ]
            }
          ]
      },
      {
        "category" : "Survival",
        "title" : "Armor Structure",
        "descr" : "",
        "cells" : [
            {
              "col" : 0,
              "row" : 0,
              "type" : "Reinforced Casing",
              "level" : 1,
              "value" : -1.5,
              "links" : [
                  { "col" : -1, "row" : 1 },
                  { "col" : 1, "row" : 1 }
                ]
            },
            {
              "col" : -1,
              "row" : 1,
              "type" : "Shock Absorbance",
              "level" : 1,
              "value" : -10,
              "links" : [
                  { "col" : -1, "row" : 2 },
                  { "col" : 0, "row" : 1 }
                ]
            },
            {
              "col" : 1,
              "row" : 1,
              "type" : "AMS Overload",
              "level" : 1,
              "value" : 0.75,
              "links" : [
                  { "col" : 0, "row" : 1 },
                  { "col" : 1, "row" : 2 }
                ]
            },
            {
              "col" : 0,
              "row" : 1,
              "type" : "Skeletal Density",
              "level" : 1,
              "value" : {"_": {"Light": 3.8, "Medium": 3.4, "Heavy": 3, "Assault": 2.5}},
              "links" : [
                  { "col" : -1, "row" : 2 },
                  { "col" : 1, "row" : 2 }
                ]
            },
            {
              "col" : -1,
              "row" : 2,
              "type" : "Reinforced Casing",
              "level" : 2,
              "value" : -1.5,
              "links" : [
                  { "col" : -2, "row" : 2 },
                  { "col" : -1, "row" : 3 }
                ]
            },
            {
              "col" : 1,
              "row" : 2,
              "type" : "Reinforced Casing",
              "level" : 3,
              "value" : -1.5,
              "links" : [
                  { "col" : 1, "row" : 3 },
                  { "col" : 2, "row" : 2 }
                ]
            },
            {
              "col" : -2,
              "row" : 2,
              "type" : "Armor Hardening",
              "level" : 1,
              "value" : {"_": {"Light": 2.3, "Medium": 1.9, "Heavy": 1.5, "Assault": 1}},
              "links" : [
                  { "col" : -3, "row" : 3 },
                  { "col" : -2, "row" : 3 }
                ]
            },
            {
              "col" : 2,
              "row" : 2,
              "type" : "Skeletal Density",
              "level" : 2,
              "value" : {"_": {"Light": 3.8, "Medium": 3.4, "Heavy": 3, "Assault": 2.5}},
              "links" : [
                  { "col" : 2, "row" : 3 },
                  { "col" : 3, "row" : 3 }
                ]
            },
            {
              "col" : -3,
              "row" : 3,
              "type" : "Shock Absorbance",
              "level" : 2,
              "value" : -10,
              "links" : [
                  { "col" : -4, "row" : 3 }
                ]
            },
            {
              "col" : -1,
              "row" : 3,
              "type" : "AMS Overload",
              "level" : 2,
              "value" : 0.75,
              "links" : [
                  { "col" : -2, "row" : 3 },
                  { "col" : 0, "row" : 3 }
                ]
            },
            {
              "col" : 1,
              "row" : 3,
              "type" : "Shock Absorbance",
              "level" : 3,
              "value" : -10,
              "links" : [
                  { "col" : 0, "row" : 3 },
                  { "col" : 2, "row" : 3 }
                ]
            },
            {
              "col" : 3,
              "row" : 3,
              "type" : "Shock Absorbance",
              "level" : 4,
              "value" : -10,
              "links" : [
                  { "col" : 4, "row" : 3 }
                ]
            },
            {
              "col" : -4,
              "row" : 3,
              "type" : "Armor Hardening",
              "level" : 2,
              "value" : {"_": {"Light": 2.3, "Medium": 1.9, "Heavy": 1.5, "Assault": 1}},
              "links" : [
                  { "col" : -3, "row" : 4 }
                ]
            },
            {
              "col" : -2,
              "row" : 3,
              "type" : "Skeletal Density",
              "level" : 3,
              "value" : {"_": {"Light": 3.8, "Medium": 3.4, "Heavy": 3, "Assault": 2.5}},
              "links" : [
                  { "col" : -3, "row" : 4 },
                  { "col" : -2, "row" : 4 }
                ]
            },
            {
              "col" : 0,
              "row" : 3,
              "type" : "Skeletal Density",
              "level" : 4,
              "value" : {"_": {"Light": 3.8, "Medium": 3.4, "Heavy": 3, "Assault": 2.5}},
              "links" : [
                  { "col" : 0, "row" : 4 }
                ]
            },
            {
              "col" : 2,
              "row" : 3,
              "type" : "Reinforced Casing",
              "level" : 4,
              "value" : -1.5,
              "links" : [
                  { "col" : 2, "row" : 4 },
                  { "col" : 3, "row" : 4 }
                ]
            },
            {
              "col" : 4,
              "row" : 3,
              "type" : "Armor Hardening",
              "level" : 3,
              "value" : {"_": {"Light": 2.3, "Medium": 1.9, "Heavy": 1.5, "Assault": 1}},
              "links" : [
                  { "col" : 3, "row" : 4 }
                ]
            },
            {
              "col" : -3,
              "row" : 4,
              "type" : "Reinforced Casing",
              "level" : 5,
              "value" : -1.5,
              "links" : [
                  { "col" : -4, "row" : 4 },
                  { "col" : -2, "row" : 4 }
                ]
            },
            {
              "col" : 3,
              "row" : 4,
              "type" : "Reinforced Casing",
              "level" : 7,
              "value" : -1.5,
              "links" : [
                  { "col" : 2, "row" : 4 },
                  { "col" : 4, "row" : 4 }
                ]
            },
            {
              "col" : -4,
              "row" : 4,
              "type" : "Armor Hardening",
              "level" : 4,
              "value" : {"_": {"Light": 2.3, "Medium": 1.9, "Heavy": 1.5, "Assault": 1}},
              "links" : [
                ]
            },
            {
              "col" : -2,
              "row" : 4,
              "type" : "Armor Hardening",
              "level" : 5,
              "value" : {"_": {"Light": 2.3, "Medium": 1.9, "Heavy": 1.5, "Assault": 1}},
              "links" : [
                  { "col" : -1, "row" : 5 }
                ]
            },
            {
              "col" : 0,
              "row" : 4,
              "type" : "Skeletal Density",
              "level" : 5,
              "value" : {"_": {"Light": 3.8, "Medium": 3.4, "Heavy": 3, "Assault": 2.5}},
              "links" : [
                  { "col" : -1, "row" : 5 },
                  { "col" : 1, "row" : 5 }
                ]
            },
            {
              "col" : 2,
              "row" : 4,
              "type" : "Skeletal Density",
              "level" : 6,
              "value" : {"_": {"Light": 3.8, "Medium": 3.4, "Heavy": 3, "Assault": 2.5}},
              "links" : [
                  { "col" : 1, "row" : 5 }
                ]
            },
            {
              "col" : 4,
              "row" : 4,
              "type" : "Skeletal Density",
              "level" : 7,
              "value" : {"_": {"Light": 3.8, "Medium": 3.4, "Heavy": 3, "Assault": 2.5}},
              "links" : [
                ]
            },
            {
              "col" : -1,
              "row" : 5,
              "type" : "Reinforced Casing",
              "level" : 6,
              "value" : -1.5,
              "links" : [
                  { "col" : -2, "row" : 5 },
                  { "col" : -1, "row" : 6 }
                ]
            },
            {
              "col" : 1,
              "row" : 5,
              "type" : "Reinforced Casing",
              "level" : 8,
              "value" : -1.5,
              "links" : [
                  { "col" : 1, "row" : 6 },
                  { "col" : 2, "row" : 5 }
                ]
            },
            {
              "col" : -2,
              "row" : 5,
              "type" : "Armor Hardening",
              "level" : 6,
              "value" : {"_": {"Light": 2.3, "Medium": 1.9, "Heavy": 1.5, "Assault": 1}},
              "links" : [
                ]
            },
            {
              "col" : 2,
              "row" : 5,
              "type" : "Skeletal Density",
              "level" : 8,
              "value" : {"_": {"Light": 3.8, "Medium": 3.4, "Heavy": 3, "Assault": 2.5}},
              "links" : [
                ]
            },
            {
              "col" : -1,
              "row" : 6,
              "type" : "Skeletal Density",
              "level" : 9,
              "value" : {"_": {"Light": 3.8, "Medium": 3.4, "Heavy": 3, "Assault": 2.5}},
              "links" : [
                  { "col" : -2, "row" : 6 },
                  { "col" : 0, "row" : 6 }
                ]
            },
            {
              "col" : 1,
              "row" : 6,
              "type" : "Skeletal Density",
              "level" : 10,
              "value" : {"_": {"Light": 3.8, "Medium": 3.4, "Heavy": 3, "Assault": 2.5}},
              "links" : [
                  { "col" : 0, "row" : 6 },
                  { "col" : 2, "row" : 6 }
                ]
            },
            {
              "col" : -2,
              "row" : 6,
              "type" : "Armor Hardening",
              "level" : 7,
              "value" : {"_": {"Light": 2.3, "Medium": 1.9, "Heavy": 1.5, "Assault": 1}},
              "links" : [
                ]
            },
            {
              "col" : 0,
              "row" : 6,
              "type" : "Shock Absorbance",
              "level" : 5,
              "value" : -10,
              "links" : [
                  { "col" : -1, "row" : 7 },
                  { "col" : 1, "row" : 7 }
                ]
            },
            {
              "col" : 2,
              "row" : 6,
              "type" : "Armor Hardening",
              "level" : 8,
              "value" : {"_": {"Light": 2.3, "Medium": 1.9, "Heavy": 1.5, "Assault": 1}},
              "links" : [
                ]
            },
            {
              "col" : -1,
              "row" : 7,
              "type" : "Armor Hardening",
              "level" : 9,
              "value" : {"_": {"Light": 2.3, "Medium": 1.9, "Heavy": 1.5, "Assault": 1}},
              "links" : [
                ]
            },
            {
              "col" : 1,
              "row" : 7,
              "type" : "Armor Hardening",
              "level" : 10,
              "value" : {"_": {"Light": 2.3, "Medium": 1.9, "Heavy": 1.5, "Assault": 1}},
              "links" : [
                ]
            }
          ]
      },
      {
        "category" : "Mobility",
        "title" : "Agility",
        "descr" : "",
        "cells" : [
            {
              "col" : 0,
              "row" : 0,
              "type" : "Kinetic Burst",
              "level" : 1,
              "value" : 3.5,
              "links" : [
                  { "col" : -1, "row" : 1 },
                  { "col" : 1, "row" : 1 }
                ]
            },
            {
              "col" : -1,
              "row" : 1,
              "type" : "Torso Yaw",
              "level" : 1,
              "value" : 2,
              "links" : [
                  { "col" : -2, "row" : 1 },
                  { "col" : 0, "row" : 1 }
                ]
            },
            {
              "col" : 1,
              "row" : 1,
              "type" : "Hard Brake",
              "level" : 1,
              "value" : 3.5,
              "links" : [
                  { "col" : 0, "row" : 1 },
                  { "col" : 2, "row" : 1 }
                ]
            },
            {
              "col" : -2,
              "row" : 1,
              "type" : "Hard Brake",
              "level" : 2,
              "value" : 3.5,
              "links" : [
                  { "col" : -3, "row" : 2 },
                  { "col" : -1, "row" : 2 }
                ]
            },
            {
              "col" : 0,
              "row" : 1,
              "type" : "Kinetic Burst",
              "level" : 2,
              "value" : 3.5,
              "links" : [
                  { "col" : -1, "row" : 2 },
                  { "col" : 1, "row" : 2 }
                ]
            },
            {
              "col" : 2,
              "row" : 1,
              "type" : "Torso Yaw",
              "level" : 2,
              "value" : 2,
              "links" : [
                  { "col" : 1, "row" : 2 },
                  { "col" : 3, "row" : 2 }
                ]
            },
            {
              "col" : -3,
              "row" : 2,
              "type" : "Torso Speed",
              "level" : 1,
              "value" : 5,
              "links" : [
                ]
            },
            {
              "col" : -1,
              "row" : 2,
              "type" : "Torso Yaw",
              "level" : 3,
              "value" : 2,
              "links" : [
                  { "col" : -2, "row" : 2 },
                  { "col" : -1, "row" : 3 }
                ]
            },
            {
              "col" : 1,
              "row" : 2,
              "type" : "Hard Brake",
              "level" : 3,
              "value" : 3.5,
              "links" : [
                  { "col" : 1, "row" : 3 },
                  { "col" : 2, "row" : 2 }
                ]
            },
            {
              "col" : 3,
              "row" : 2,
              "type" : "Anchor Turn",
              "level" : 1,
              "value" : 6,
              "links" : [
                ]
            },
            {
              "col" : -2,
              "row" : 2,
              "type" : "Kinetic Burst",
              "level" : 3,
              "value" : 3.5,
              "links" : [
                  { "col" : -3, "row" : 3 },
                  { "col" : -1, "row" : 3 }
                ]
            },
            {
              "col" : 2,
              "row" : 2,
              "type" : "Kinetic Burst",
              "level" : 4,
              "value" : 3.5,
              "links" : [
                  { "col" : 1, "row" : 3 },
                  { "col" : 3, "row" : 3 }
                ]
            },
            {
              "col" : -3,
              "row" : 3,
              "type" : "Hard Brake",
              "level" : 4,
              "value" : 3.5,
              "links" : [
                  { "col" : -4, "row" : 3 },
                  { "col" : -2, "row" : 3 }
                ]
            },
            {
              "col" : -1,
              "row" : 3,
              "type" : "Torso Yaw",
              "level" : 4,
              "value" : 2,
              "links" : [
                  { "col" : -2, "row" : 3 },
                  { "col" : 0, "row" : 3 }
                ]
            },
            {
              "col" : 1,
              "row" : 3,
              "type" : "Kinetic Burst",
              "level" : 5,
              "value" : 3.5,
              "links" : [
                  { "col" : 0, "row" : 3 },
                  { "col" : 2, "row" : 3 }
                ]
            },
            {
              "col" : 3,
              "row" : 3,
              "type" : "Kinetic Burst",
              "level" : 6,
              "value" : 3.5,
              "links" : [
                  { "col" : 2, "row" : 3 },
                  { "col" : 4, "row" : 3 }
                ]
            },
            {
              "col" : -4,
              "row" : 3,
              "type" : "Torso Speed",
              "level" : 2,
              "value" : 5,
              "links" : [
                  { "col" : -3, "row" : 4 }
                ]
            },
            {
              "col" : -2,
              "row" : 3,
              "type" : "Torso Speed",
              "level" : 3,
              "value" : 5,
              "links" : [
                  { "col" : -1, "row" : 4 }
                ]
            },
            {
              "col" : 0,
              "row" : 3,
              "type" : "Torso Pitch",
              "level" : 1,
              "value" : 2,
              "links" : [
                  { "col" : -1, "row" : 4 },
                  { "col" : 1, "row" : 4 }
                ]
            },
            {
              "col" : 2,
              "row" : 3,
              "type" : "Kinetic Burst",
              "level" : 7,
              "value" : 3.5,
              "links" : [
                  { "col" : 1, "row" : 4 }
                ]
            },
            {
              "col" : 4,
              "row" : 3,
              "type" : "Hard Brake",
              "level" : 5,
              "value" : 3.5,
              "links" : [
                  { "col" : 3, "row" : 4 }
                ]
            },
            {
              "col" : -3,
              "row" : 4,
              "type" : "Torso Yaw",
              "level" : 5,
              "value" : 2,
              "links" : [
                  { "col" : -2, "row" : 4 }
                ]
            },
            {
              "col" : -1,
              "row" : 4,
              "type" : "Torso Pitch",
              "level" : 2,
              "value" : 2,
              "links" : [
                  { "col" : -2, "row" : 4 }
                ]
            },
            {
              "col" : 1,
              "row" : 4,
              "type" : "Torso Pitch",
              "level" : 3,
              "value" : 2,
              "links" : [
                  { "col" : 2, "row" : 4 }
                ]
            },
            {
              "col" : 3,
              "row" : 4,
              "type" : "Anchor Turn",
              "level" : 2,
              "value" : 6,
              "links" : [
                  { "col" : 2, "row" : 4 }
                ]
            },
            {
              "col" : -2,
              "row" : 4,
              "type" : "Hard Brake",
              "level" : 6,
              "value" : 3.5,
              "links" : [
                  { "col" : -3, "row" : 5 },
                  { "col" : -1, "row" : 5 }
                ]
            },
            {
              "col" : 2,
              "row" : 4,
              "type" : "Hard Brake",
              "level" : 7,
              "value" : 3.5,
              "links" : [
                  { "col" : 1, "row" : 5 },
                  { "col" : 3, "row" : 5 }
                ]
            },
            {
              "col" : -3,
              "row" : 5,
              "type" : "Anchor Turn",
              "level" : 3,
              "value" : 6,
              "links" : [
                  { "col" : -2, "row" : 5 }
                ]
            },
            {
              "col" : -1,
              "row" : 5,
              "type" : "Torso Speed",
              "level" : 4,
              "value" : 5,
              "links" : [
                  { "col" : -2, "row" : 5 }
                ]
            },
            {
              "col" : 1,
              "row" : 5,
              "type" : "Torso Speed",
              "level" : 5,
              "value" : 5,
              "links" : [
                  { "col" : 2, "row" : 5 }
                ]
            },
            {
              "col" : 3,
              "row" : 5,
              "type" : "Anchor Turn",
              "level" : 4,
              "value" : 6,
              "links" : [
                  { "col" : 2, "row" : 5 }
                ]
            },
            {
              "col" : -2,
              "row" : 5,
              "type" : "Torso Pitch",
              "level" : 4,
              "value" : 2,
              "links" : [
                  { "col" : -3, "row" : 6 },
                  { "col" : -2, "row" : 6 }
                ]
            },
            {
              "col" : 2,
              "row" : 5,
              "type" : "Torso Pitch",
              "level" : 5,
              "value" : 2,
              "links" : [
                  { "col" : 2, "row" : 6 },
                  { "col" : 3, "row" : 6 }
                ]
            },
            {
              "col" : -3,
              "row" : 6,
              "type" : "Speed Tweak",
              "level" : 1,
              "value" : 1.5,
              "links" : [
                  { "col" : -2, "row" : 6 }
                ]
            },
            {
              "col" : 3,
              "row" : 6,
              "type" : "Speed Tweak",
              "level" : 2,
              "value" : 1.5,
              "links" : [
                  { "col" : 2, "row" : 6 }
                ]
            },
            {
              "col" : -2,
              "row" : 6,
              "type" : "Torso Speed",
              "level" : 6,
              "value" : 5,
              "links" : [
                  { "col" : -1, "row" : 7 }
                ]
            },
            {
              "col" : 2,
              "row" : 6,
              "type" : "Anchor Turn",
              "level" : 5,
              "value" : 6,
              "links" : [
                  { "col" : 1, "row" : 7 }
                ]
            },
            {
              "col" : -1,
              "row" : 7,
              "type" : "Speed Tweak",
              "level" : 3,
              "value" : 1.5,
              "links" : [
                  { "col" : 0, "row" : 7 }
                ]
            },
            {
              "col" : 1,
              "row" : 7,
              "type" : "Speed Tweak",
              "level" : 4,
              "value" : 1.5,
              "links" : [
                  { "col" : 0, "row" : 7 }
                ]
            },
            {
              "col" : 0,
              "row" : 7,
              "type" : "Speed Tweak",
              "level" : 5,
              "value" : 1.5,
              "links" : [
                ]
            }
          ]
      },
      {
        "category" : "Jump Jets",
        "title" : "Jump Capabilities",
        "descr" : "",
        "cells" : [
            {
              "col" : 0,
              "row" : 0,
              "type" : "Heat Shielding",
              "level" : 1,
              "value" : -6,
              "links" : [
                  { "col" : -1, "row" : 1 },
                  { "col" : 1, "row" : 1 }
                ]
            },
            {
              "col" : -1,
              "row" : 1,
              "type" : "Vent Calibration",
              "level" : 1,
              "value" : 3,
              "links" : [
                  { "col" : -1, "row" : 2 },
                  { "col" : 0, "row" : 1 }
                ]
            },
            {
              "col" : 1,
              "row" : 1,
              "type" : "Vectoring",
              "level" : 1,
              "value" : 25,
              "links" : [
                  { "col" : 0, "row" : 1 },
                  { "col" : 1, "row" : 2 },
                  { "col" : 2, "row" : 1 }
                ]
            },
            {
              "col" : 0,
              "row" : 1,
              "type" : "Heat Shielding",
              "level" : 2,
              "value" : -6,
              "links" : [
                  { "col" : -1, "row" : 2 },
                  { "col" : 1, "row" : 2 }
                ]
            },
            {
              "col" : 2,
              "row" : 1,
              "type" : "Lift Speed",
              "level" : 1,
              "value" : 3,
              "links" : [
                ]
            },
            {
              "col" : -1,
              "row" : 2,
              "type" : "Vent Calibration",
              "level" : 2,
              "value" : 3,
              "links" : [
                  { "col" : -1, "row" : 3 },
                  { "col" : 0, "row" : 2 }
                ]
            },
            {
              "col" : 1,
              "row" : 2,
              "type" : "Vectoring",
              "level" : 2,
              "value" : 25,
              "links" : [
                  { "col" : 0, "row" : 2 },
                  { "col" : 1, "row" : 3 },
                  { "col" : 2, "row" : 2 }
                ]
            },
            {
              "col" : 0,
              "row" : 2,
              "type" : "Heat Shielding",
              "level" : 3,
              "value" : -6,
              "links" : [
                  { "col" : -1, "row" : 3 },
                  { "col" : 1, "row" : 3 }
                ]
            },
            {
              "col" : 2,
              "row" : 2,
              "type" : "Lift Speed",
              "level" : 2,
              "value" : 3,
              "links" : [
                ]
            },
            {
              "col" : -1,
              "row" : 3,
              "type" : "Vent Calibration",
              "level" : 3,
              "value" : 3,
              "links" : [
                  { "col" : -2, "row" : 3 },
                  { "col" : -1, "row" : 4 },
                  { "col" : 0, "row" : 3 }
                ]
            },
            {
              "col" : 1,
              "row" : 3,
              "type" : "Vectoring",
              "level" : 3,
              "value" : 25,
              "links" : [
                  { "col" : 0, "row" : 3 },
                  { "col" : 1, "row" : 4 }
                ]
            },
            {
              "col" : -2,
              "row" : 3,
              "type" : "Lift Speed",
              "level" : 3,
              "value" : 3,
              "links" : [
                ]
            },
            {
              "col" : 0,
              "row" : 3,
              "type" : "Heat Shielding",
              "level" : 4,
              "value" : -6,
              "links" : [
                  { "col" : -1, "row" : 4 },
                  { "col" : 1, "row" : 4 }
                ]
            },
            {
              "col" : -1,
              "row" : 4,
              "type" : "Vent Calibration",
              "level" : 4,
              "value" : 3,
              "links" : [
                  { "col" : -2, "row" : 4 },
                  { "col" : -1, "row" : 5 },
                  { "col" : 0, "row" : 4 }
                ]
            },
            {
              "col" : 1,
              "row" : 4,
              "type" : "Vectoring",
              "level" : 4,
              "value" : 25,
              "links" : [
                  { "col" : 0, "row" : 4 },
                  { "col" : 1, "row" : 5 }
                ]
            },
            {
              "col" : -2,
              "row" : 4,
              "type" : "Lift Speed",
              "level" : 4,
              "value" : 3,
              "links" : [
                ]
            },
            {
              "col" : 0,
              "row" : 4,
              "type" : "Heat Shielding",
              "level" : 5,
              "value" : -6,
              "links" : [
                  { "col" : -1, "row" : 5 },
                  { "col" : 1, "row" : 5 }
                ]
            },
            {
              "col" : -1,
              "row" : 5,
              "type" : "Vent Calibration",
              "level" : 5,
              "value" : 3,
              "links" : [
                ]
            },
            {
              "col" : 1,
              "row" : 5,
              "type" : "Vectoring",
              "level" : 5,
              "value" : 25,
              "links" : [
                  { "col" : 0, "row" : 5 }
                ]
            },
            {
              "col" : 0,
              "row" : 5,
              "type" : "Lift Speed",
              "level" : 5,
              "value" : 3,
              "links" : [
                ]
            }
          ]
      },
      {
        "category" : "Operations",
        "title" : "Mech Operations",
        "descr" : "",
        "cells" : [
            {
              "col" : 0,
              "row" : 0,
              "type" : "Quick Ignition",
              "level" : 1,
              "value" : -7,
              "links" : [
                  { "col" : -1, "row" : 1 },
                  { "col" : 1, "row" : 1 }
                ]
            },
            {
              "col" : -1,
              "row" : 1,
              "type" : "Speed Retention",
              "level" : 1,
              "value" : 10,
              "links" : [
                  { "col" : -1, "row" : 2 },
                  { "col" : 0, "row" : 1 }
                ]
            },
            {
              "col" : 1,
              "row" : 1,
              "type" : "Improved Gyros",
              "level" : 1,
              "value" : -17.5,
              "links" : [
                  { "col" : 0, "row" : 1 },
                  { "col" : 1, "row" : 2 }
                ]
            },
            {
              "col" : 0,
              "row" : 1,
              "type" : "Heat Containment",
              "level" : 1,
              "value" : 3,
              "links" : [
                  { "col" : -1, "row" : 2 },
                  { "col" : 1, "row" : 2 }
                ]
            },
            {
              "col" : -1,
              "row" : 2,
              "type" : "Hill Climb",
              "level" : 1,
              "value" : 5,
              "links" : [
                  { "col" : -2, "row" : 2 },
                  { "col" : -1, "row" : 3 }
                ]
            },
            {
              "col" : 1,
              "row" : 2,
              "type" : "Improved Gyros",
              "level" : 2,
              "value" : -17.5,
              "links" : [
                  { "col" : 1, "row" : 3 },
                  { "col" : 2, "row" : 2 }
                ]
            },
            {
              "col" : -2,
              "row" : 2,
              "type" : "Heat Containment",
              "level" : 2,
              "value" : 3,
              "links" : [
                  { "col" : -3, "row" : 3 },
                  { "col" : -2, "row" : 3 }
                ]
            },
            {
              "col" : 2,
              "row" : 2,
              "type" : "Heat Containment",
              "level" : 3,
              "value" : 3,
              "links" : [
                  { "col" : 2, "row" : 3 },
                  { "col" : 3, "row" : 3 }
                ]
            },
            {
              "col" : -3,
              "row" : 3,
              "type" : "Cool Run",
              "level" : 1,
              "value" : 2,
              "links" : [
                ]
            },
            {
              "col" : -1,
              "row" : 3,
              "type" : "Hill Climb",
              "level" : 2,
              "value" : 5,
              "links" : [
                  { "col" : -1, "row" : 4 },
                  { "col" : 0, "row" : 3 }
                ]
            },
            {
              "col" : 1,
              "row" : 3,
              "type" : "Speed Retention",
              "level" : 2,
              "value" : 10,
              "links" : [
                  { "col" : 0, "row" : 3 },
                  { "col" : 1, "row" : 4 }
                ]
            },
            {
              "col" : 3,
              "row" : 3,
              "type" : "Cool Run",
              "level" : 2,
              "value" : 2,
              "links" : [
                ]
            },
            {
              "col" : -2,
              "row" : 3,
              "type" : "Quick Ignition",
              "level" : 2,
              "value" : -7,
              "links" : [
                  { "col" : -1, "row" : 4 }
                ]
            },
            {
              "col" : 0,
              "row" : 3,
              "type" : "Cool Run",
              "level" : 3,
              "value" : 2,
              "links" : [
                  { "col" : -1, "row" : 4 },
                  { "col" : 1, "row" : 4 }
                ]
            },
            {
              "col" : 2,
              "row" : 3,
              "type" : "Quick Ignition",
              "level" : 3,
              "value" : -7,
              "links" : [
                  { "col" : 1, "row" : 4 }
                ]
            },
            {
              "col" : -1,
              "row" : 4,
              "type" : "Hill Climb",
              "level" : 3,
              "value" : 5,
              "links" : [
                  { "col" : -2, "row" : 4 },
                  { "col" : 0, "row" : 4 }
                ]
            },
            {
              "col" : 1,
              "row" : 4,
              "type" : "Improved Gyros",
              "level" : 3,
              "value" : -17.5,
              "links" : [
                  { "col" : 0, "row" : 4 },
                  { "col" : 2, "row" : 4 }
                ]
            },
            {
              "col" : -2,
              "row" : 4,
              "type" : "Heat Containment",
              "level" : 4,
              "value" : 3,
              "links" : [
                ]
            },
            {
              "col" : 0,
              "row" : 4,
              "type" : "Quick Ignition",
              "level" : 4,
              "value" : -7,
              "links" : [
                  { "col" : -1, "row" : 5 },
                  { "col" : 1, "row" : 5 }
                ]
            },
            {
              "col" : 2,
              "row" : 4,
              "type" : "Heat Containment",
              "level" : 5,
              "value" : 3,
              "links" : [
                ]
            },
            {
              "col" : -1,
              "row" : 5,
              "type" : "Improved Gyros",
              "level" : 4,
              "value" : -17.5,
              "links" : [
                  { "col" : 0, "row" : 5 }
                ]
            },
            {
              "col" : 1,
              "row" : 5,
              "type" : "Speed Retention",
              "level" : 3,
              "value" : 10,
              "links" : [
                  { "col" : 0, "row" : 5 }
                ]
            },
            {
              "col" : 0,
              "row" : 5,
              "type" : "Quick Ignition",
              "level" : 5,
              "value" : -7,
              "links" : [
                  { "col" : -1, "row" : 6 },
                  { "col" : 1, "row" : 6 }
                ]
            },
            {
              "col" : -1,
              "row" : 6,
              "type" : "Cool Run",
              "level" : 4,
              "value" : 2,
              "links" : [
                ]
            },
            {
              "col" : 1,
              "row" : 6,
              "type" : "Cool Run",
              "level" : 5,
              "value" : 2,
              "links" : [
                ]
            }
          ]
      },
      {
        "category" : "Sensors",
        "title" : "Sensor Systems",
        "descr" : "",
        "cells" : [
            {
              "col" : 0,
              "row" : 0,
              "type" : "Target Info Gathering",
              "level" : 1,
              "value" : 7,
              "links" : [
                  { "col" : -1, "row" : 1 },
                  { "col" : 1, "row" : 1 }
                ]
            },
            {
              "col" : -1,
              "row" : 1,
              "type" : "Target Decay",
              "level" : 1,
              "value" : 0.7,
              "links" : [
                  { "col" : -2, "row" : 1 },
                  { "col" : -1, "row" : 2 },
                  { "col" : 0, "row" : 1 }
                ]
            },
            {
              "col" : 1,
              "row" : 1,
              "type" : "Sensor Range",
              "level" : 1,
              "value" : 7,
              "links" : [
                  { "col" : 0, "row" : 1 },
                  { "col" : 1, "row" : 2 },
                  { "col" : 2, "row" : 1 }
                ]
            },
            {
              "col" : -2,
              "row" : 1,
              "type" : "Target Retention",
              "level" : 1,
              "value" : 200,
              "links" : [
                ]
            },
            {
              "col" : 0,
              "row" : 1,
              "type" : "Sensor Range",
              "level" : 2,
              "value" : 7,
              "links" : [
                  { "col" : -1, "row" : 2 },
                  { "col" : 1, "row" : 2 }
                ]
            },
            {
              "col" : 2,
              "row" : 1,
              "type" : "Target Info Gathering",
              "level" : 2,
              "value" : 7,
              "links" : [
                  { "col" : 3, "row" : 2 }
                ]
            },
            {
              "col" : -1,
              "row" : 2,
              "type" : "Target Info Gathering",
              "level" : 3,
              "value" : 7,
              "links" : [
                  { "col" : -1, "row" : 3 },
                  { "col" : 0, "row" : 2 }
                ]
            },
            {
              "col" : 1,
              "row" : 2,
              "type" : "Sensor Range",
              "level" : 3,
              "value" : 7,
              "links" : [
                  { "col" : 0, "row" : 2 },
                  { "col" : 1, "row" : 3 }
                ]
            },
            {
              "col" : 3,
              "row" : 2,
              "type" : "Advanced Zoom",
              "level" : 0,
              "value" : 1,
              "links" : [
                ]
            },
            {
              "col" : 0,
              "row" : 2,
              "type" : "Target Decay",
              "level" : 2,
              "value" : 0.7,
              "links" : [
                ]
            },
            {
              "col" : -1,
              "row" : 3,
              "type" : "Target Info Gathering",
              "level" : 4,
              "value" : 7,
              "links" : [
                  { "col" : -2, "row" : 3 },
                  { "col" : -1, "row" : 4 }
                ]
            },
            {
              "col" : 1,
              "row" : 3,
              "type" : "Target Retention",
              "level" : 2,
              "value" : 200,
              "links" : [
                  { "col" : 1, "row" : 4 },
                  { "col" : 2, "row" : 3 }
                ]
            },
            {
              "col" : -2,
              "row" : 3,
              "type" : "Radar Deprivation",
              "level" : 1,
              "value" : 20,
              "links" : [
                ]
            },
            {
              "col" : 2,
              "row" : 3,
              "type" : "Target Decay",
              "level" : 3,
              "value" : 0.7,
              "links" : [
                  { "col" : 3, "row" : 4 }
                ]
            },
            {
              "col" : -1,
              "row" : 4,
              "type" : "Sensor Range",
              "level" : 4,
              "value" : 7,
              "links" : [
                  { "col" : -2, "row" : 4 },
                  { "col" : -1, "row" : 5 },
                  { "col" : 0, "row" : 4 }
                ]
            },
            {
              "col" : 1,
              "row" : 4,
              "type" : "Sensor Range",
              "level" : 5,
              "value" : 7,
              "links" : [
                  { "col" : 0, "row" : 4 },
                  { "col" : 1, "row" : 5 },
                  { "col" : 2, "row" : 4 }
                ]
            },
            {
              "col" : 3,
              "row" : 4,
              "type" : "Seismic Sensor",
              "level" : 1,
              "value" : 100,
              "links" : [
                ]
            },
            {
              "col" : -2,
              "row" : 4,
              "type" : "Radar Deprivation",
              "level" : 2,
              "value" : 20,
              "links" : [
                  { "col" : -3, "row" : 5 }
                ]
            },
            {
              "col" : 0,
              "row" : 4,
              "type" : "Target Decay",
              "level" : 4,
              "value" : 0.7,
              "links" : [
                ]
            },
            {
              "col" : 2,
              "row" : 4,
              "type" : "Radar Deprivation",
              "level" : 3,
              "value" : 20,
              "links" : [
                  { "col" : 3, "row" : 5 }
                ]
            },
            {
              "col" : -3,
              "row" : 5,
              "type" : "Enhanced ECM",
              "level" : 1,
              "value" : 22.5,
              "links" : [
                ]
            },
            {
              "col" : -1,
              "row" : 5,
              "type" : "Target Info Gathering",
              "level" : 5,
              "value" : 7,
              "links" : [
                  { "col" : -2, "row" : 5 },
                  { "col" : 0, "row" : 5 }
                ]
            },
            {
              "col" : 1,
              "row" : 5,
              "type" : "Target Decay",
              "level" : 5,
              "value" : 0.7,
              "links" : [
                  { "col" : 2, "row" : 5 }
                ]
            },
            {
              "col" : 3,
              "row" : 5,
              "type" : "Enhanced ECM",
              "level" : 2,
              "value" : 22.5,
              "links" : [
                ]
            },
            {
              "col" : -2,
              "row" : 5,
              "type" : "Seismic Sensor",
              "level" : 2,
              "value" : 100,
              "links" : [
                ]
            },
            {
              "col" : 0,
              "row" : 5,
              "type" : "Radar Deprivation",
              "level" : 4,
              "value" : 20,
              "links" : [
                ]
            },
            {
              "col" : 2,
              "row" : 5,
              "type" : "Radar Deprivation",
              "level" : 5,
              "value" : 20,
              "links" : [
                ]
            }
          ]
      },
      {
        "category" : "Auxiliary",
        "title" : "Miscellaneous",
        "descr" : "",
        "cells" : [
            {
              "col" : 0,
              "row" : 0,
              "type" : "Consumable Slot",
              "level" : 1,
              "value" : 1,
              "links" : [
                  { "col" : -1, "row" : 1 },
                  { "col" : 1, "row" : 1 }
                ]
            },
            {
              "col" : -1,
              "row" : 1,
              "type" : "UAV Duration",
              "level" : 0,
              "value" : 10,
              "links" : [
                  { "col" : -2, "row" : 1 },
                  { "col" : -1, "row" : 2 },
                  { "col" : 0, "row" : 1 }
                ]
            },
            {
              "col" : 1,
              "row" : 1,
              "type" : "Advanced Salvos",
              "level" : 1,
              "value" : 15,
              "links" : [
                  { "col" : 0, "row" : 1 },
                  { "col" : 1, "row" : 2 },
                  { "col" : 2, "row" : 1 }
                ]
            },
            {
              "col" : -2,
              "row" : 1,
              "type" : "UAV Range",
              "level" : 1,
              "value" : 20,
              "links" : [
                  { "col" : -3, "row" : 2 },
                  { "col" : -2, "row" : 2 }
                ]
            },
            {
              "col" : 0,
              "row" : 1,
              "type" : "Enhanced Coolshot",
              "level" : 1,
              "value" : 15,
              "links" : [
                  { "col" : -1, "row" : 2 },
                  { "col" : 0, "row" : 2 },
                  { "col" : 1, "row" : 2 }
                ]
            },
            {
              "col" : 2,
              "row" : 1,
              "type" : "Advanced Salvos",
              "level" : 2,
              "value" : 15,
              "links" : [
                  { "col" : 2, "row" : 2 },
                  { "col" : 3, "row" : 2 }
                ]
            },
            {
              "col" : -3,
              "row" : 2,
              "type" : "Extra UAV",
              "level" : 0,
              "value" : 1,
              "links" : [
                  { "col" : -4, "row" : 2 },
                  { "col" : -3, "row" : 3 }
                ]
            },
            {
              "col" : -1,
              "row" : 2,
              "type" : "Capture Assist",
              "level" : 1,
              "value" : 5,
              "links" : [
                  { "col" : -2, "row" : 2 },
                  { "col" : -1, "row" : 3 },
                  { "col" : 0, "row" : 2 }
                ]
            },
            {
              "col" : 1,
              "row" : 2,
              "type" : "Capture Assist",
              "level" : 2,
              "value" : 5,
              "links" : [
                  { "col" : 0, "row" : 2 },
                  { "col" : 1, "row" : 3 },
                  { "col" : 2, "row" : 2 }
                ]
            },
            {
              "col" : 3,
              "row" : 2,
              "type" : "Expanded Reserves",
              "level" : 0,
              "value" : 1,
              "links" : [
                  { "col" : 3, "row" : 3 },
                  { "col" : 4, "row" : 2 }
                ]
            },
            {
              "col" : -4,
              "row" : 2,
              "type" : "UAV Range",
              "level" : 2,
              "value" : 20,
              "links" : [
                ]
            },
            {
              "col" : -2,
              "row" : 2,
              "type" : "Enhanced NARC",
              "level" : 1,
              "value" : 10,
              "links" : [
                  { "col" : -1, "row" : 3 }
                ]
            },
            {
              "col" : 0,
              "row" : 2,
              "type" : "Enhanced Coolshot",
              "level" : 2,
              "value" : 15,
              "links" : [
                  { "col" : -1, "row" : 3 },
                  { "col" : 0, "row" : 3 },
                  { "col" : 1, "row" : 3 }
                ]
            },
            {
              "col" : 2,
              "row" : 2,
              "type" : "Enhanced NARC",
              "level" : 2,
              "value" : 10,
              "links" : [
                  { "col" : 1, "row" : 3 }
                ]
            },
            {
              "col" : 4,
              "row" : 2,
              "type" : "Enhanced Spotting",
              "level" : 0,
              "value" : -20,
              "links" : [
                ]
            },
            {
              "col" : -3,
              "row" : 3,
              "type" : "Consumable Slot",
              "level" : 2,
              "value" : 1,
              "links" : [
                ]
            },
            {
              "col" : -1,
              "row" : 3,
              "type" : "Capture Assist",
              "level" : 3,
              "value" : 5,
              "links" : [
                ]
            },
            {
              "col" : 1,
              "row" : 3,
              "type" : "Capture Assist",
              "level" : 4,
              "value" : 5,
              "links" : [
                ]
            },
            {
              "col" : 3,
              "row" : 3,
              "type" : "Consumable Slot",
              "level" : 3,
              "value" : 1,
              "links" : [
                ]
            },
            {
              "col" : 0,
              "row" : 3,
              "type" : "Coolant Reserves",
              "level" : 0,
              "value" : 1,
              "links" : [
                  { "col" : -1, "row" : 4 },
                  { "col" : 1, "row" : 4 }
                ]
            },
            {
              "col" : -1,
              "row" : 4,
              "type" : "Coolshot Cooldown",
              "level" : 0,
              "value" : -25,
              "links" : [
                ]
            },
            {
              "col" : 1,
              "row" : 4,
              "type" : "Consumable Slot",
              "level" : 4,
              "value" : 1,
              "links" : [
                ]
            }
          ]
      }
    ]
}
