{
    "1.4.247.0": {
        "date": "2021-10-19"
    },
    "1.4.246.0": {
        "date": "2021-09-21"
    },
    "1.4.245.0": {
        "date": "2021-08-24"
    },
    "1.4.244.0": {
        "date": "2021-07-20"
    },
    "1.4.242.0": {
        "date": "2021-06-22"
    },
    "1.4.241.0": {
        "date": "2021-05-18"
    },
    "1.4.240.0": {
        "date": "2021-04-20"
    },
    "1.4.239.0": {
        "date": "2021-03-16"
    },
    "1.4.227.0": {
        "date": "2020-06-30"
    },
    "1.4.214.0": {
        "date": "2019-08-20"
    },
    "1.4.212.0": {
        "date": "2019-07-16"
    },
    "1.4.211.0": {
        "date": "2019-06-18"
    },
    "1.4.201.0": {
        "date": "2019-05-21"
    },
    "1.4.199.0": {
        "date": "2019-04-16"
    },
    "1.4.198.0": {
        "date": "2019-03-19"
    },
    "1.4.197.0": {
        "date": "2019-02-19"
    },
    "1.4.193.0": {
        "date": "2019-01-22"
    },
    "1.4.190.0": {
        "date": "2018-12-11"
    },
    "1.4.188.0": {
        "date": "2018-11-13"
    },
    "1.4.186.0": {
        "date": "2018-10-16"
    },
    "1.4.181.0": {
        "date": "2018-09-18"
    },
    "1.4.179.0": {
        "date": "2018-08-21"
    },
    "1.4.176.0": {
        "date": "2018-07-17"
    },
    "1.4.174.0": {
        "date": "2018-06-19"
    },
    "1.4.171.0": {
        "date": "2018-05-28"
    },
    "1.4.169.0": {
        "date": "2018-05-15"
    },
    "1.4.150.0": {
        "date": "2018-02-20"
    },
    "1.4.148.0": {
        "date": "2018-01-23"
    },
    "1.4.143.0": {
        "date": "2017-12-12"
    },
    "1.4.142.0": {
        "date": "2017-11-14"
    },
    "1.4.137.0": {
        "date": "2017-10-18"
    },
    "1.4.131.0": {
        "date": "2017-09-19"
    },
    "1.4.130.0": {
        "date": "2017-08-15"
    }
}
