{
  "ac_velocity_multiplier": "AC Velocity %",
  "accellerp_all_multiplier": "Mech Acceleration %",
  "all_cooldown_multiplier": "Cooldown %",
  "all_heat_multiplier": "Heat Generation %",
  "all_range_multiplier": "Range %",
  "armorresist_ct_additive": "Base Armor (CT) +",
  "armorresist_hd_additive": "Base Armor (HD) +",
  "armorresist_la_additive": "Base Armor (LA) +",
  "armorresist_ll_additive": "Base Armor (LL) +",
  "armorresist_lt_additive": "Base Armor (LT) +",
  "armorresist_ra_additive": "Base Armor (RA) +",
  "armorresist_rl_additive": "Base Armor (RL) +",
  "armorresist_rt_additive": "Base Armor (RT) +",
  "atm_cooldown_multiplier": "ATM Cooldown %",
  "atm_heat_multiplier": "ATM Heat Generation %",
  "atm_spread_multiplier": "ATM Spread %",
  "ballistic_cooldown_multiplier": "Ballistic Weapon Cooldown %",
  "ballistic_heat_multiplier": "Ballistic Weapon Heat Generation %",
  "ballistic_range_multiplier": "Ballistic Weapon Range %",
  "ballistic_velocity_multiplier": "Ballistic Weapon Velocity %",
  "clanantimissilesystem_range_multiplier": "Clan AMS Range %",
  "clanantimissilesystem_rof_multiplier": "Clan AMS Rate of Fire %",
  "clanerlaser_cooldown_multiplier": "Clan ER Laser Cooldown %",
  "clanerlaser_duration_multiplier": "Clan ER Laser Duration %",
  "clanerlaser_heat_multiplier": "Clan ER Laser Heat Generation %",
  "clanerlaser_range_multiplier": "Clan ER Laser Range %",
  "clanermediumlaser_heat_multiplier": "Clan ER Medium Laser Heat Generation %",
  "clanerppc_cooldown_multiplier": "Clan ER PPC Cooldown %",
  "clanerppc_heat_multiplier": "Clan ER PPC Heat Generation %",
  "clanerppc_velocity_multiplier": "Clan ER PPC Velocity %",
  "clangaussrifle_cooldown_multiplier": "Clan Gauss Cooldown %",
  "clanlaser_duration_multiplier": "Clan Laser Duration %",
  "clanlbxautocannon10_cooldown_multiplier": "Clan LB10-X AC Cooldown %",
  "clanlbxautocannon_spread_multiplier": "Clan LB-X AC Spread %",
  "clanlrm20_cooldown_multiplier": "Clan LRM 20 Cooldown %",
  "clanlrm20_spread_multiplier": "Clan LRM 20 Spread %",
  "clanlrm_cooldown_multiplier": "Clan LRM Cooldown %",
  "clanmachinegun_range_multiplier": "Clan MG Range %",
  "clanmachinegun_rof_multiplier": "Clan MG Rate of Fire %",
  "clanmediumpulselaser_heat_multiplier": "Clan Medium Pulse Laser Heat Generation %",
  "clanmediumpulselaser_range_multiplier": "Clan Medium Pulse Laser Range %",
  "clannarcbeacon_range_additive": "Clan NARC Beacon Range +",
  "clanppc_range_multiplier": "Clan PPC Range %",
  "clanppc_velocity_multiplier": "Clan PPC Velocity %",
  "clanpulselaser_duration_multiplier": "Clan Pulse Laser Duration %",
  "clanpulselaser_heat_multiplier": "Clan Pulse Laser Heat Generation %",
  "clansrm2_heat_multiplier": "Clan SRM 2 Heat Generation %",
  "clanstreaksrm_cooldown_multiplier": "Clan Streak SRM Cooldown %",
  "clanultraautocannon2_heat_multiplier": "Clan Ultra AC/2 Heat Generation %",
  "critchance_receiving_multiplier": "Crit Hit Chance (Receiving) %",
  "decellerp_all_multiplier": "Mech Deceleration %",
  "energy_cooldown_multiplier": "Energy Weapon Cooldown %",
  "energy_heat_multiplier": "Energy Weapon Heat Generation %",
  "energy_range_multiplier": "Energy Weapon Range %",
  "erlaser_cooldown_multiplier": "ER Laser Cooldown %",
  "erlaser_duration_multiplier": "ER Laser Duration %",
  "erlaser_heat_multiplier": "ER Laser Heat Generation %",
  "erlaser_range_multiplier": "ER Laser Range %",
  "externalheat_multiplier": "External Heat Transfer %",
  "heatdissipation_multiplier": "Heat Dissipation %",
  "heatloss_multiplier": "Heat Dissipation %",
  "heavylaser_duration_multiplier": "Heavy Laser Duration %",
  "heavylaser_heat_multiplier": "Heavy Laser Heat Generation %",
  "heavylaser_range_multiplier": "Heavy Laser Range %",
  "internalresist_ct_additive": "Base Structure (CT) +",
  "internalresist_la_additive": "Base Structure (LA) +",
  "internalresist_ll_additive": "Base Structure (LL) +",
  "internalresist_lt_additive": "Base Structure (LT) +",
  "internalresist_ra_additive": "Base Structure (RA) +",
  "internalresist_rl_additive": "Base Structure (RL) +",
  "internalresist_rt_additive": "Base Structure (RT) +",
  "isantimissilesystem_range_multiplier": "IS AMS Range %",
  "isantimissilesystem_rof_multiplier": "IS AMS Rate of Fire %",
  "isautocannon10_cooldown_multiplier": "IS AC/10 Cooldown %",
  "isautocannon10_range_multiplier": "IS AC/10 Range %",
  "isautocannon20_cooldown_multiplier": "IS AC/20 Cooldown %",
  "isautocannon20_velocity_multiplier": "IS AC/20 Velocity %",
  "isautocannon2_cooldown_multiplier": "IS AC/2 Cooldown %",
  "isautocannon5_cooldown_multiplier": "IS AC/5 Cooldown %",
  "iserlargelaser_cooldown_multiplier": "IS ER Large Laser Cooldown %",
  "iserlargelaser_heat_multiplier": "IS ER Large Laser Heat Generation %",
  "iserppc_cooldown_multiplier": "IS ER PPC Cooldown %",
  "iserppc_heat_multiplier": "IS ER PPC Heat Generation %",
  "iserppc_velocity_multiplier": "IS ER PPC Velocity %",
  "isflamer_range_multiplier": "IS Flamer Range %",
  "isgaussrifle_cooldown_multiplier": "IS Gauss Cooldown %",
  "islargelaser_cooldown_multiplier": "IS Large Laser Cooldown %",
  "islargelaser_range_multiplier": "IS Large Laser Range %",
  "islargepulselaser_cooldown_multiplier": "IS Large Pulse Laser Cooldown %",
  "islargepulselaser_heat_multiplier": "IS Large Pulse Laser Heat Generation %",
  "islargepulselaser_range_multiplier": "IS Large Pulse Laser Range %",
  "islbxautocannon10_cooldown_multiplier": "IS LB10-X AC Cooldown %",
  "islbxautocannon_spread_multiplier": "IS LB-X AC Spread %",
  "islrm10_cooldown_multiplier": "IS LRM 10 Cooldown %",
  "islrm15_cooldown_multiplier": "IS LRM 15 Cooldown %",
  "islrm20_cooldown_multiplier": "IS LRM 20 Cooldown %",
  "islrm20_heat_multiplier": "IS LRM 20 Heat Generation %",
  "islrm_cooldown_multiplier": "IS LRM Cooldown %",
  "islrm_spread_multiplier": "IS LRM Spread %",
  "islrm_velocity_multiplier": "IS LRM Velocity %",
  "ismachinegun_rof_multiplier": "IS MG Rate of Fire %",
  "ismediumlaser_cooldown_multiplier": "IS Medium Laser Cooldown %",
  "ismediumlaser_duration_multiplier": "IS Medium Laser Duration %",
  "ismediumlaser_heat_multiplier": "IS Medium Laser Heat Generation %",
  "ismediumlaser_range_multiplier": "IS Medium Laser Range %",
  "ismediumpulselaser_range_multiplier": "IS Medium Pulse Laser Range %",
  "isnarcbeacon_range_additive": "IS NARC Beacon Range +",
  "issrm4_cooldown_multiplier": "IS SRM 4 Cooldown %",
  "issrm_spread_multiplier": "IS SRM Spread %",
  "isstdlaser_duration_multiplier": "IS Standard Laser Duration %",
  "isstdlaser_heat_multiplier": "IS Standard Laser Heat Generation %",
  "isstdlaser_range_multiplier": "IS Standard Laser Range %",
  "isstreaksrm_cooldown_multiplier": "IS Streak SRM Cooldown %",
  "isultraautocannon5_cooldown_multiplier": "IS Ultra AC/5 Cooldown %",
  "isultraautocannon5_jamchance_multiplier": "IS Ultra AC/5 Jam Chance %",
  "jumpjetslots_additive": "Jump Jet Capacity +",
  "laser_duration_multiplier": "Laser Duration %",
  "laser_heat_multiplier": "Laser Heat Generation %",
  "laser_range_multiplier": "Laser Range %",
  "lbxautocannon_cooldown_multiplier": "LB-X AC Cooldown %",
  "lbxautocannon_spread_multiplier": "LB-X AC Spread %",
  "lbxautocannon_velocity_multiplier": "LB-X AC Velocity %",
  "lrm_cooldown_multiplier": "LRM Cooldown %",
  "lrm_heat_multiplier": "LRM Heat Generation %",
  "lrm_spread_multiplier": "LRM Spread %",
  "lrm_velocity_multiplier": "LRM Velocity %",
  "mediumpulselaser_cooldown_multiplier": "Medium Pulse Laser Cooldown %",
  "missile_cooldown_multiplier": "Missile Weapon Cooldown %",
  "missile_heat_multiplier": "Missile Weapon Heat Generation %",
  "missile_range_multiplier": "Missile Weapon Range %",
  "missile_spread_multiplier": "Missile Weapon Spread %",
  "missile_velocity_multiplier": "Missile Weapon Velocity %",
  "mrm_velocity_multiplier": "MRM Velocity %",
  "narcbeacon_narcduration_additive": "NARC Beacon Tag Duration +",
  "nonpulselaser_duration_multiplier": "Stadard and ER Laser Duration %",
  "overheatdamage_multiplier": "Overheat Damage %",
  "ppcfamily_cooldown_multiplier": "PPC Cooldown %",
  "ppcfamily_heat_multiplier": "PPC Heat Generation %",
  "ppcfamily_velocity_multiplier": "PPC Velocity %",
  "pulselaser_cooldown_multiplier": "Pulse Laser Cooldown %",
  "pulselaser_duration_multiplier": "Pulse Laser Duration %",
  "pulselaser_heat_multiplier": "Pulse Laser Heat Generation %",
  "pulselaser_range_multiplier": "Pulse Laser Range %",
  "reversespeed_multiplier": "Reverse Speed %",
  "sensorrange_additive": "Sensor Range +",
  "srm_spread_multiplier": "SRM Spread %",
  "streaksrm_cooldown_multiplier": "Streak SRM Cooldown %",
  "targetdecayduration_additive": "Target Decay Duration +",
  "torso_pitchangle_additive": "Torso Pitch Angle +",
  "torso_pitchspeed_multiplier": "Torso Pitch Speed %",
  "torso_yawangle_additive": "Torso Yaw Angle +",
  "torso_yawspeed_multiplier": "Torso Yaw Speed %",
  "turnlerp_all_multiplier": "Turn Rate %",
  "turnrate_multiplier": "Turn Rate %",
  "ultraautocannon20_cooldown_multiplier": "Ultra AC/20 Cooldown %",
  "ultraautocannon20_jamchance_multiplier": "Ultra AC/20 Jam Chance %",
  "ultraautocannon_cooldown_multiplier": "Ultra AC Cooldown %",
  "ultraautocannon_jamchance_multiplier": "Ultra AC Jam Chance %",
  "ultraautocannon_range_multiplier": "Ultra AC Range %",
  "ultraautocannon_velocity_multiplier": "Ultra AC Velocity %",
  "xpbonus_multiplier": "XP Bonus %"
}
